\relax 
\@writefile{toc}{\contentsline {section}{\numberline {1}Education}{1}}
\@writefile{toc}{\contentsline {section}{\numberline {2}Introduction}{1}}
\@writefile{toc}{\contentsline {section}{\numberline {3}Employment}{2}}
\@writefile{toc}{\contentsline {section}{\numberline {4}Research Experience}{2}}
\@writefile{toc}{\contentsline {section}{\numberline {5}Computing Experience}{3}}
\@writefile{toc}{\contentsline {section}{\numberline {6}Presentation Skills}{3}}
\@writefile{toc}{\contentsline {section}{\numberline {7}References}{3}}
